…
    ## Warning in full_join(dn_nc, lq_nc, by = "state"): Detected an unexpected many-to-many relationship between `x` and `y`.
    ## ℹ Row 1 of `x` matches multiple rows in `y`.
    ## ℹ Row 1 of `y` matches multiple rows in `x`.
    ## ℹ If a many-to-many relationship is expected, set `relationship =
    ##   "many-to-many"` to silence this warning.

``` r
dn_lq_nc
```

    ## # A tibble: 336 × 11
    ##    address.x    city.x state zip.x longitude.x latitude.x address.y city.y zip.y
    ##    <chr>        <chr>  <chr> <chr>       <dbl>      <dbl> <chr>     <chr>  <chr>
    ##  1 1 Regent Pa… Ashev… NC    28806       -82.6       35.6 165 Hwy … "\nBo… 28607
    ##  2 1 Regent Pa… Ashev… NC    28806       -82.6       35.6 3127 Slo… "\nCh… 28208
    ##  3 1 Regent Pa… Ashev… NC    28806       -82.6       35.6 4900 Sou… "\nCh… 28217
    ##  4 1 Regent Pa… Ashev… NC    28806       -82.6       35.6 4414 Dur… "\nDu… 27707
    ##  5 1 Regent Pa… Ashev… NC    28806       -82.6       35.6 1910 Wes… "\nDu… 27713
    ##  6 1 Regent Pa… Ashev… NC    28806       -82.6       35.6 1201 Lan… "\nGr… 27407
    ##  7 1 Regent Pa… Ashev… NC    28806       -82.6       35.6 1607 Fai… "\nCo… 28613
    ##  8 1 Regent Pa… Ashev… NC    28806       -82.6       35.6 191 Cres… "\nCa… 27518
    ##  9 1 Regent Pa… Ashev… NC    28806       -82.6       35.6 2211 Sum… "\nRa… 27612
    ## 10 1 Regent Pa… Ashev… NC    28806       -82.6       35.6 1001 Aer… "\nMo… 27560
    ## # ℹ 326 more rows
    ## # ℹ 2 more variables: longitude.y <dbl>, latitude.y <dbl>
…
    ## Warning in full_join(dn_tx, lq_tx, by = "state"): Detected an unexpected many-to-many relationship between `x` and `y`.
    ## ℹ Row 1 of `x` matches multiple rows in `y`.
    ## ℹ Row 1 of `y` matches multiple rows in `x`.
    ## ℹ If a many-to-many relationship is expected, set `relationship =
    ##   "many-to-many"` to silence this warning.

``` r
dn_lq_tx
```

    ## # A tibble: 47,400 × 11
    ##    address.x    city.x state zip.x longitude.x latitude.x address.y city.y zip.y
    ##    <chr>        <chr>  <chr> <chr>       <dbl>      <dbl> <chr>     <chr>  <chr>
    ##  1 120 East I-… Abile… TX    79601       -99.6       32.4 3018 Cat… "\nAb… 79606
    ##  2 120 East I-… Abile… TX    79601       -99.6       32.4 3501 Wes… "\nAb… 79601
    ##  3 120 East I-… Abile… TX    79601       -99.6       32.4 14925 La… "\nAd… 75254
    ##  4 120 East I-… Abile… TX    79601       -99.6       32.4 909 East… "\nAl… 78516
    ##  5 120 East I-… Abile… TX    79601       -99.6       32.4 2400 Eas… "\nAl… 78332
    ##  6 120 East I-… Abile… TX    79601       -99.6       32.4 1220 Nor… "\nAl… 75013
    ##  7 120 East I-… Abile… TX    79601       -99.6       32.4 1165 Hwy… "\nAl… 76009
    ##  8 120 East I-… Abile… TX    79601       -99.6       32.4 880 Sout… "\nAl… 77511
    ##  9 120 East I-… Abile… TX    79601       -99.6       32.4 1708 Int… "\nAm… 79103
    ## 10 120 East I-… Abile… TX    79601       -99.6       32.4 9305 Eas… "\nAm… 79118
    ## # ℹ 47,390 more rows
    ## # ℹ 2 more variables: longitude.y <dbl>, latitude.y <dbl>
…
    ## Warning in full_join(dn_mi, lq_mi, by = "state"): Detected an unexpected many-to-many relationship between `x` and `y`.
    ## ℹ Row 1 of `x` matches multiple rows in `y`.
    ## ℹ Row 1 of `y` matches multiple rows in `x`.
    ## ℹ If a many-to-many relationship is expected, set `relationship =
    ##   "many-to-many"` to silence this warning.

``` r
dn_lq_mi
```

    ## # A tibble: 88 × 11
    ##    address.x    city.x state zip.x longitude.x latitude.x address.y city.y zip.y
    ##    <chr>        <chr>  <chr> <chr>       <dbl>      <dbl> <chr>     <chr>  <chr>
    ##  1 3310 Washte… Ann A… MI    48104       -83.7       42.3 41211 Fo… "\nCa… 48187
    ##  2 3310 Washte… Ann A… MI    48104       -83.7       42.3 30847 Fl… "\nRo… 48174
    ##  3 3310 Washte… Ann A… MI    48104       -83.7       42.3 12888 Re… "\nSo… 48195
    ##  4 3310 Washte… Ann A… MI    48104       -83.7       42.3 45311 Pa… "\nUt… 48315
    ##  5 4785 Beckle… Battl… MI    49015       -85.2       42.3 41211 Fo… "\nCa… 48187
    ##  6 4785 Beckle… Battl… MI    49015       -85.2       42.3 30847 Fl… "\nRo… 48174
    ##  7 4785 Beckle… Battl… MI    49015       -85.2       42.3 12888 Re… "\nSo… 48195
    ##  8 4785 Beckle… Battl… MI    49015       -85.2       42.3 45311 Pa… "\nUt… 48315
    ##  9 2033 Rawson… Belle… MI    48111       -83.5       42.2 41211 Fo… "\nCa… 48187
    ## 10 2033 Rawson… Belle… MI    48111       -83.5       42.2 30847 Fl… "\nRo… 48174
    ## # ℹ 78 more rows
    ## # ℹ 2 more variables: longitude.y <dbl>, latitude.y <dbl>
…
